,-1,0,1,conf,prediction,results,sentiment,sentiment_score,twit
0,0.25691714139314614,0.34408656567984586,0.398996292927008,0.398996292927008,1,False,-1,-0.724,Barclays reports 8% fall in annual profits
1,0.48770748517371126,0.5041420941357907,0.008150420690498057,0.5041420941357907,0,False,1,0.476,Teva: FDA Approves Generic Version of AstraZeneca Heartburn Drug
2,0.5565510078032859,0.0002031483540433794,0.44324584384267074,0.5565510078032859,-1,False,1,0.408,Balfour Beatty plc Set To Reinstate Dividend (And Rival National Grid plc And Centrica PLC Once More?)
3,0.0014591563572627436,0.9465561674175244,0.05198467622521284,0.9465561674175244,0,False,-1,-0.789,Chipotle Sales Plunge as Troubled Chain Gets Federal Subpoena
4,0.1250852182259609,0.374853061990475,0.5000617197835641,0.5000617197835641,1,False,0,0.193,Shell offers 50 percent premium to buy BG for $70 billion
5,0.09088641868086568,0.009078952605280024,0.9000346287138542,0.9000346287138542,1,False,0,0.137,Morrisons share price: Founder's son to assist CEO with turnaround
6,0.0019711534367850454,0.9958016051065732,0.0022272414566418546,0.9958016051065732,0,False,1,0.418,UPDATE 1-EU regulator backs approval for GSK injectable asthma drug
7,0.1445993582096908,0.784142404385804,0.0712582374045053,0.784142404385804,0,False,1,0.234,Sainsbury sells unit to LloydsPharmacy
8,0.49881225965344606,0.5007095547851002,0.0004781855614537612,0.5007095547851002,0,False,-1,-0.329,Former Barclays traders stand trial in Libor case
9,0.25691714139314614,0.34408656567984586,0.398996292927008,0.398996292927008,1,True,1,0.719,Tesco share price jumps as Q3 sales top estimates
10,0.25691714139314614,0.34408656567984586,0.398996292927008,0.398996292927008,1,True,1,0.308,"South Africa approves SABMiller, Coke bottling deal with conditions"
11,0.33678719696490433,0.00014420946018357532,0.6630685935749121,0.6630685935749121,1,True,1,0.345,CompaniesActelion shares hit record on Shire takeover talk
12,0.003210919394533936,0.248583797298305,0.7482052833071611,0.7482052833071611,1,False,-1,-0.381,UPDATE: Aggreko Interim Profit Drops As It Undertakes Restructuring
13,0.3334302081017322,0.3320402552684787,0.3345295366297891,0.3345295366297891,1,False,-1,-0.536,"HSBC, Standard Chartered Lead Asia Bank Rout as U.K. Votes 'Out'"
14,0.009401800906496513,0.36690918412052526,0.6236890149729782,0.6236890149729782,1,False,-1,-0.812,Standard Chartered's Shares Plunge 7% After Fitch Downgrade
15,0.4982131746078395,0.4995867542216429,0.0022000711705177037,0.4995867542216429,0,False,-1,-0.438,Standard Chartered Misses Estimates in Sands's Last Results
16,0.0001991106789355247,0.9939389805694171,0.005861908751647454,0.9939389805694171,0,True,0,-0.074,"HSBC shakes up board with two new business chiefs, three departures"
17,0.00026239719389036404,0.49979910306047,0.49993849974563975,0.49993849974563975,1,False,-1,-0.458,Britain's FTSE slips from 2016 high as Sky falls
18,0.0001991106789355247,0.9939389805694171,0.005861908751647454,0.9939389805694171,0,False,1,0.31,BHP Billiton to lower copper production costs
19,0.00026239719389036404,0.49979910306047,0.49993849974563975,0.49993849974563975,1,True,1,0.274,Glencore Sells Shares to Raise $2.5 Billion and Reduce Debt
20,0.25691714139314614,0.34408656567984586,0.398996292927008,0.398996292927008,1,False,-1,-0.666,CompaniesSmith & Nephew flops 6.8% to foot of FTSE 100
21,0.006654655258523088,0.6654495879467457,0.32789575679473126,0.6654495879467457,0,True,0,-0.152,"Philip Morris, BAT Sue Over Law Taking Branding Off Packs"
22,0.9959432196017612,0.0032288985289201386,0.00082788186931869,0.9959432196017612,-1,False,1,0.207,Asahi could be about to snap up more of SABMiller's beers ahead of AB InBev sale
23,0.0023392301704324254,0.006546873787598536,0.9911138960419691,0.9911138960419691,1,False,-1,-0.566,Buffett's Company Reports 37 Percent Drop in 2Q Earnings
24,0.1736965939303709,0.005967528587209093,0.8203358774824201,0.8203358774824201,1,False,-1,-0.588,BP Judge Urged to Impose $11.7 Billion-Plus Spill Fine
25,0.33387514365341275,2.1353632412749346e-05,0.6661035027141744,0.6661035027141744,1,True,1,0.89,RBI surprises Street; Sensex pares gains after hitting mount 30k
26,0.0005884470333972533,0.0006949435167333246,0.9987166094498693,0.9987166094498693,1,False,0,-0.046,"Royal Mail needs to deliver on modernisation plans, post haste"
27,0.014457967790522473,0.003668950446962342,0.9818730817625151,0.9818730817625151,1,False,0,0.1,Barclays CEO poaches risk head from JP Morgan
28,0.0010613571612442072,2.2231959633569134e-06,0.9989364196427925,0.9989364196427925,1,False,-1,-0.251,"Sainsbury's, Asda, Tesco and Morrisons will all cut petrol prices as oil falls ..."
29,0.005111839686562191,0.9939861329459527,0.0009020273674852449,0.9939861329459527,0,False,-1,-0.343,Clydesdale Bank H1 profits weighed down by PPI charge
30,0.9946535171575722,0.0043526847039715875,0.0009937981384563403,0.9946535171575722,-1,False,1,0.258,UPDATE 1-AstraZeneca sells rare cancer drug to Sanofi for up to $300 mln
31,0.00020639286088108957,0.33279944102179204,0.6669941661173269,0.6669941661173269,1,False,0,0.0,CompaniesDeutsche taps ex-StanChart executive for audit role
32,0.25691714139314614,0.34408656567984586,0.398996292927008,0.398996292927008,1,False,0,-0.05,Cuadrilla chief Francis Egan: Scaremongering fracking opponents make me angry
33,0.9807107180861828,0.016953226403732362,0.0023360555100849375,0.9807107180861828,-1,True,-1,-0.266,Investors Remain Skeptical About Shell-BG Deal
34,0.0009482851313918141,0.0004278656777385676,0.9986238491908696,0.9986238491908696,1,True,1,0.333,Amazon to attack UK grocery market with Morrisons deal
35,4.929347930624865e-06,0.007552872901417468,0.992442197750652,0.992442197750652,1,True,1,0.344,Glencore tells investors it is on track to reduce debt: Barclays
36,0.005617515898953692,0.6922988096399625,0.30208367446108386,0.6922988096399625,0,False,-1,-0.829,UPDATE 3-Barclays fined for lax crime checks in 'deal of century'
37,0.5565510078032859,0.0002031483540433794,0.44324584384267074,0.5565510078032859,-1,True,-1,-0.704,Prudential hit by withdrawals from M&G investment arm
38,0.00680277978011942,0.9903888744083745,0.00280834581150608,0.9903888744083745,0,False,-1,-0.379,Old Mutual faces backlash over Â£9m chief exec payout plan
39,0.24815481525466077,0.2441137239025142,0.5077314608428249,0.5077314608428249,1,False,0,0.147,Barclays backs new iPhone and Android app that lets users send each other money using a bitcoin network
40,0.1540263778240971,0.30690897118544347,0.5390646509904594,0.5390646509904594,1,False,0,0.198,Diageo Sells Ryder Cup Venue Gleneagles Hotel to Ennismore Group
41,0.0004593213737839887,0.9982139168134666,0.0013267618127495602,0.9982139168134666,0,False,-1,-0.532,Lloyds to cut 945 jobs as part of three-year restructuring strategy
42,0.0009281996922748766,0.9958313110402869,0.0032404892674381134,0.9958313110402869,0,True,0,0.0,CommentOpening Quote: Tesco; Premier Foods jilted; FCA on IPOs
43,0.001343631480847993,0.9975096486213726,0.0011467198977793526,0.9975096486213726,0,True,0,0.14,Investor Woodford calls for outsider to head GlaxoSmithKline
44,0.25691714139314614,0.34408656567984586,0.398996292927008,0.398996292927008,1,False,-1,-0.39,Randgold Resources third quarter profit slips despite record production
45,0.17618799460822293,0.41110329151176367,0.41270871388001346,0.41270871388001346,1,False,-1,-0.719,News FeedFTSE 100 movers: LSE surges as ICE says mulling offer; Ashtead and Barclays tank
46,0.0005643936272920744,0.999367790330101,6.781604260688856e-05,0.999367790330101,0,True,0,-0.14,"Goldman Sachs, Barclays, HSBC downplay Brexit threat"
47,0.014457967790522473,0.003668950446962342,0.9818730817625151,0.9818730817625151,1,False,-1,-0.278,UPDATE 1-UK to start selling remaining Royal Mail shares
48,0.14229350046480388,0.7149471468133629,0.14275935272183327,0.7149471468133629,0,False,1,0.245,Companies Thetrainline.com announces arrival of London IPO
49,0.25691714139314614,0.34408656567984586,0.398996292927008,0.398996292927008,1,False,-1,-0.6,Hargreaves weathers torrid ISA season and Brexit fears
50,0.3317881727138259,0.331569450753537,0.3366423765326372,0.3366423765326372,1,False,0,-0.077,PRESS: UK Government Would Oppose Any BP Takeover - FT
51,0.0032227855123948515,8.275200145726307e-07,0.9967763869675905,0.9967763869675905,1,True,1,0.549,"Britain's FTSE gains, Land Securities up after dividend hike"
52,0.29953545997733355,0.10059720548480378,0.5998673345378627,0.5998673345378627,1,True,1,0.25,AstraZeneca's MedImmune Inks Licensing Deal With Omnis Pharmaceuticals
53,0.33678719696490433,0.00014420946018357532,0.6630685935749121,0.6630685935749121,1,False,0,0.0,What It Takes for Royal Dutch Shell to Break Even
54,0.0003994642113962355,0.49510793236861206,0.5044926034199917,0.5044926034199917,1,True,1,0.581,Industry NewsPetrofac secures $250m North Sea contract
55,0.0016776590212977977,0.9929986714302619,0.005323669548440353,0.9929986714302619,0,False,1,0.287,"Lloyds Will Cut 640 Jobs, Close 23 Branches as Part of 2014 Plan"
56,0.25691714139314614,0.34408656567984586,0.398996292927008,0.398996292927008,1,False,0,-0.057,Royal Mail turnaround proving expensive in tough UK market
57,0.25691714139314614,0.34408656567984586,0.398996292927008,0.398996292927008,1,True,1,0.285,IHG agrees $938 sale of InterContinental Hong Kong
58,0.25691714139314614,0.34408656567984586,0.398996292927008,0.398996292927008,1,True,1,0.231,Barclays Said to Shrink Bonus Pool to Less Than 2 Billion Pounds
59,0.05030484360371678,0.5074434562211669,0.4422517001751163,0.5074434562211669,0,False,1,0.302,Shire Offers to Buy Baxalta for $30 Billion
60,0.014457967790522473,0.003668950446962342,0.9818730817625151,0.9818730817625151,1,True,1,0.366,Crown Castle buys Tower Development Corp for $461 million
61,0.1540263778240971,0.30690897118544347,0.5390646509904594,0.5390646509904594,1,True,1,0.556,LONDON MORNING BRIEFING: HSBC And Standard Chartered Shares Rise
62,0.2503094875046309,0.49923919000372674,0.25045132249164237,0.49923919000372674,0,True,0,0.191,Norway's sovereign wealth fund says backed Shell CEO's pay
63,0.0015714113955484907,0.5991844355969679,0.3992441530074835,0.5991844355969679,0,False,-1,-0.31,MarketsProperty stocks under pressure after Standard Life fund move
64,0.25028593838300256,0.0003459485498700413,0.7493681130671275,0.7493681130671275,1,False,-1,-0.34,UPDATE 5-SABMiller rejects AB InBev's $104 bln takeover approach
65,0.25691714139314614,0.34408656567984586,0.398996292927008,0.398996292927008,1,False,-1,-0.896,BP's fine for 2010 oil spill capped at $13.7 billion
66,0.316947083741228,0.46635424353820654,0.21669867272056545,0.46635424353820654,0,False,-1,-0.72,Oilfield services firm Petrofac's debt shoots up 50 per cent
67,0.9790093031590225,1.673035849115222e-08,0.020990680110619064,0.9790093031590225,-1,False,1,0.516,Eli Lilly & Co. (LLY) Has Broken Out To A New High On AstraZeneca Collaboration
68,0.0016156554359745472,0.39781802242501174,0.6005663221390136,0.6005663221390136,1,True,1,0.642,FTSE 100 movers: BG Group leads the charge as resource stocks jump
69,0.00011827404921288695,0.9998805455469552,1.1804038319148119e-06,0.9998805455469552,0,False,1,0.277,Spain's CaixaBank Expects To Close Deal For Banco BPI
70,0.25691714139314614,0.34408656567984586,0.398996292927008,0.398996292927008,1,False,0,-0.111,Royal Mail share price: Postal service issues trading update
71,0.00010858961458827646,0.0018491296624202106,0.9980422807229915,0.9980422807229915,1,False,-1,-0.492,Barclays Said to Cut 150 at Investment Bank as McCormick Departs
72,0.331415431614652,0.667507131006633,0.001077437378715003,0.667507131006633,0,False,1,0.278,Glencore fight back over debt fears lifts shares
73,0.25691714139314614,0.34408656567984586,0.398996292927008,0.398996292927008,1,False,0,0.04,SAB's Chairman Digs In With Board Divided on InBev Offer
74,0.00016752007915085796,0.5019635988802276,0.4978688810406217,0.5019635988802276,0,False,-1,-0.251,Britain facing winter of blackouts as National Grid warns of tightest power ...
75,0.00020262681247778884,0.6506626068671475,0.3491347663203746,0.6506626068671475,0,False,1,0.237,AB InBev approaches SABMiller to explore $250bn tie-up
76,0.03578369515530167,0.00020174258360671437,0.9640145622610916,0.9640145622610916,1,False,0,0.198,Barclays launches first 100% mortgages since crisis
77,0.005028858498101873,0.0012238676404402284,0.9937472738614578,0.9937472738614578,1,False,0,0.096,Germanwings disaster will not affect image of budget air travel - easyJet
78,0.007203617257107775,0.007627640017841334,0.985168742725051,0.985168742725051,1,False,-1,-0.661,"Nine banks including Barclays, Citi, agree to pay $2 billion to settle forex ..."
79,0.006654655258523088,0.6654495879467457,0.32789575679473126,0.6654495879467457,0,True,0,0.178,"After Barclays and Bank of America, Citigroup has blockchain in sight"
80,0.3248607957180893,0.6677644593474789,0.007374744934431793,0.6677644593474789,0,False,1,0.753,Early victory for new CEO as Morrisons beats forecasts
81,0.25691714139314614,0.34408656567984586,0.398996292927008,0.398996292927008,1,False,-1,-0.456,Barclays said to be cutting 150 investment bank jobs
82,0.004432112335132033,0.9694569793940858,0.026110908270782128,0.9694569793940858,0,True,0,0.078,Shell challenges Exxon dominance with 47 billion-pound bid for BG
83,0.25691714139314614,0.34408656567984586,0.398996292927008,0.398996292927008,1,False,0,0.099,"Should You Buy Jumbo Yielders British American Tobacco plc, Centrica PLC & John Wood Group PLC?"
84,0.49433343614204733,0.003682414645812707,0.5019841492121401,0.5019841492121401,1,True,1,0.327,London Stock Exchange seals Â£22 billion merger with Germany's Deutsche BÃ¶rse
85,0.4977932976934086,0.003144425695244037,0.4990622766113475,0.4990622766113475,1,True,1,0.413,Unilever Finds Growth More Elusive as Sales Meet Estimates
86,0.24857078713432526,0.25077492782684124,0.5006542850388335,0.5006542850388335,1,True,1,0.704,Primark racks up a happy Christmas after strong sales
87,0.9952293936956902,0.003499115153961154,0.0012714911503484707,0.9952293936956902,-1,True,-1,-0.599,New York says Barclays not cooperating in 'dark pool' probe
88,0.33678719696490433,0.00014420946018357532,0.6630685935749121,0.6630685935749121,1,True,1,0.332,"FDA approves NPS drug, in move validating Shire takeover deal"
89,0.4969903309253514,0.3313915267740188,0.17161814230062983,0.4969903309253514,-1,True,-1,-0.269,Royal Mail share price edges lower as group raises stamp price
90,0.18057666214790613,0.5705772782527333,0.24884605959936074,0.5705772782527333,0,False,1,0.719,Sainsbury's and Glencore give FTSE a three-digit lift - London Report
91,0.005028858498101873,0.0012238676404402284,0.9937472738614578,0.9937472738614578,1,False,-1,-0.389,Tesco share price dips as Blinkbox Books closes ending supermarket's digital ...
92,0.33251673112378244,0.0019407435667469278,0.6655425253094706,0.6655425253094706,1,True,1,0.218,Tata Steel working with StanChart for UK unit sale - source
93,0.4998739009798901,0.49714584672415,0.0029802522959598574,0.4998739009798901,-1,True,-1,-0.384,Diageo offloads major wine interests
94,0.0016156554359745472,0.39781802242501174,0.6005663221390136,0.6005663221390136,1,True,1,0.264,Glencore Agrees to Sell Minority Stake in Agriculture Business
95,0.1540263778240971,0.30690897118544347,0.5390646509904594,0.5390646509904594,1,True,1,0.323,Diageo sells wine businesses for 320m pounds
96,0.4989616667930528,0.25006452757343633,0.2509738056335108,0.4989616667930528,-1,False,0,0.12,Breakingviews: IAG can pay more for Aer Lingus
97,0.003210919394533936,0.248583797298305,0.7482052833071611,0.7482052833071611,1,False,0,-0.085,UPDATE 1-UK government would oppose any takeover of BP -FT
98,0.03578369515530167,0.00020174258360671437,0.9640145622610916,0.9640145622610916,1,False,-1,-0.439,Australian mining slowdown hits Aggreko
99,4.032332818742286e-05,0.9999589695360759,7.071357368542116e-07,0.9999589695360759,0,True,0,0.0,The sustainability of Royal Dutch Shell's dividend
100,0.33678719696490433,0.00014420946018357532,0.6630685935749121,0.6630685935749121,1,False,0,0.0,CompaniesCoutts raids JPMorgan Chase for new CEO
101,0.00810951129827361,0.32707247617282525,0.6648180125289012,0.6648180125289012,1,False,-1,-0.324,Easyjet traffic hit by air traffic controller strikes and terrorism
102,0.49433343614204733,0.003682414645812707,0.5019841492121401,0.5019841492121401,1,False,-1,-0.689,Dixons Carphone says cyber attack may have exposed customers' data
103,4.929347930624865e-06,0.007552872901417468,0.992442197750652,0.992442197750652,1,True,1,0.256,Stars aligned' for AB InBev's megabrew merger plan
104,0.004800275300727433,1.1068598042135751e-05,0.9951886561012304,0.9951886561012304,1,False,-1,-0.51,AstraZeneca's Good Deal Turns Bad
105,0.5045630478784697,0.004979771434825156,0.49045718068670513,0.5045630478784697,-1,True,-1,-0.357,Tesco share price dips as Blinkbox Books closes ending supermarket's digital ...
106,0.4998739009798901,0.49714584672415,0.0029802522959598574,0.4998739009798901,-1,False,1,0.456,"Aldi and Lidl expansion plans speed ahead as Tesco, Sainsbury's, Morrisons ..."
107,0.5565510078032859,0.0002031483540433794,0.44324584384267074,0.5565510078032859,-1,False,1,0.326,Primark plots expansion in US and Europe
108,0.0008711212647540094,0.0016293759180502066,0.9974995028171958,0.9974995028171958,1,False,-1,-0.927,BP shares tumble after $2.2bn fourth-quarter loss
109,0.33678719696490433,0.00014420946018357532,0.6630685935749121,0.6630685935749121,1,False,-1,-0.268,Is Trouble Brewing At Legal & General Group Plc And Aviva plc?
110,0.1445993582096908,0.784142404385804,0.0712582374045053,0.784142404385804,0,False,-1,-0.724,Berkshire Hathaway's 4Q profit declines 17 percent
111,0.4988232495766318,0.49868774201435734,0.0024890084090108473,0.4988232495766318,-1,True,-1,-0.805,Ex-Barclays traders sentenced to up to six years' jail in Libor case
112,0.00164818706204229,0.001747830246569547,0.9966039826913881,0.9966039826913881,1,False,-1,-0.462,BP slashes capital spending by 20%
113,0.33381349212535877,0.334508627454724,0.33167788041991725,0.334508627454724,0,False,-1,-0.75,Shell's profits hit by further slide in oil prices
114,0.018604647783576466,0.010063462702502737,0.9713318895139207,0.9713318895139207,1,True,1,0.259,The Coca-Cola Company and Coca-Cola FEMSA to Acquire AdeS Soy-Based Beverage Business From Unilever
115,0.25691714139314614,0.34408656567984586,0.398996292927008,0.398996292927008,1,True,1,0.292,Stars aligned' for AB InBev's megabrew merger plan
116,0.2733140145801294,0.45396937612200966,0.27271660929786096,0.45396937612200966,0,False,1,0.365,Tesco sells half of stake in ecommerce site Lazada to Alibaba for Â£90m
117,0.3295243409273069,0.006424683271458326,0.6640509758012348,0.6640509758012348,1,False,-1,-0.29,Lloyds is cutting more than 600 jobs and shutting 21 branches
118,0.006381556394908003,0.0029421841834781446,0.9906762594216139,0.9906762594216139,1,False,-1,-0.306,Can BP Restore Its Lost Luster?
119,0.876426798240451,0.1161733278964394,0.007399873863109655,0.876426798240451,-1,False,1,0.512,"Britain's FTSE steadies below record high, BHP gains"
120,0.0024357258230901673,0.997545560939957,1.871323695273494e-05,0.997545560939957,0,False,-1,-0.214,"Insight - Britain's bank tax jump threatens to push HSBC, StanChart to new home"
121,0.18057666214790613,0.5705772782527333,0.24884605959936074,0.5705772782527333,0,True,0,0.0,"Can Standard Chartered PLC, BP plc & Burberry Group plc Keep Charging?"
122,0.399241664904013,0.200156045484088,0.400602289611899,0.400602289611899,1,True,1,0.213,Tesco Versus Sainsbury: Weight-Watcher vs. Bodybuilder
123,0.25691714139314614,0.34408656567984586,0.398996292927008,0.398996292927008,1,False,-1,-0.24,Stakes High for AstraZeneca Heart Drug Facing Tough Competition
124,0.7506717749364709,0.24923898564763197,8.923941589717566e-05,0.7506717749364709,-1,False,1,0.461,UPDATE 1-Cypress Semiconductor offers to buy Integrated Silicon Solution
125,0.4953819224366794,0.006531090784353375,0.4980869867789673,0.4980869867789673,1,True,1,0.332,Breakingviews: IAG can pay more for Aer Lingus
126,0.4989257744031471,6.1590453296992615e-06,0.5010680665515233,0.5010680665515233,1,False,0,0.0,InterContinental Hotels denies exploring sale or merger
127,0.5565510078032859,0.0002031483540433794,0.44324584384267074,0.5565510078032859,-1,False,1,0.307,Peroni and Grolsch put up for sale as AB InBev plans acquisition of SABMiller
128,0.3317881727138259,0.331569450753537,0.3366423765326372,0.3366423765326372,1,False,-1,-0.392,Hargreaves Lansdown says first-quarter assets hit by stock market flux
129,0.988735912345978,0.007714034631917722,0.0035500530221043063,0.988735912345978,-1,False,1,0.2,Aviva Expects 1500 Jobs Cuts from Friends Life Deal
130,0.0005737056967288614,0.0003284559881994945,0.9990978383150717,0.9990978383150717,1,False,0,-0.071,CompaniesThiam received Â£5m pay packet for final months at Prudential
131,0.0007236842876169082,0.9982997356697707,0.0009765800426124798,0.9982997356697707,0,False,-1,-0.338,"UPDATE 1-BHP Billiton's credit ratings fragile in FY16, agencies warn"
132,0.24857078713432526,0.25077492782684124,0.5006542850388335,0.5006542850388335,1,True,1,0.323,Royal Dutch Shell Posts Rise in Earnings Despite Lower Oil Prices
133,2.4834629260059884e-05,0.00022203173727132486,0.9997531336334685,0.9997531336334685,1,True,1,0.335,Shell to Go Ahead With Petrochemical Plant in Pennsylvania
134,0.49430390529079243,0.4983243464256258,0.007371748283581934,0.4983243464256258,0,False,1,0.206,AB InBev approaches SABMiller to explore $250bn tie-up
135,0.0002546233552775614,2.243585411610915e-06,0.999743133059311,0.999743133059311,1,False,0,-0.047,Sugar tax spurs Pepsi owner Britvic to change drinks recipes by 2020
136,0.49881225965344606,0.5007095547851002,0.0004781855614537612,0.5007095547851002,0,True,0,-0.092,Barclays poaches new chief operating officer Paul Compton from JP Morgan Chase
137,0.028861177664097234,0.9578541231841115,0.013284699151791349,0.9578541231841115,0,False,1,0.375,CompaniesPhilips transfers $900m of pension obligations
138,0.1540263778240971,0.30690897118544347,0.5390646509904594,0.5390646509904594,1,False,-1,-0.574,Barclays in $13.75 million US settlement over mutual funds
139,0.29953545997733355,0.10059720548480378,0.5998673345378627,0.5998673345378627,1,True,1,0.371,Standard Life stands tall amid pension reform
140,0.3473754920993166,0.0046543597889451005,0.6479701481117381,0.6479701481117381,1,True,1,0.33,AstraZeneca to Pay Inovio Up to $700 Million for Cancer Drug
141,6.896403801832879e-06,0.9958160964711564,0.004177007125041711,0.9958160964711564,0,False,1,0.296,Shire to buy NPS for $5.2 billion to boost rare disease drugs
142,0.5863836376511631,0.08020296121801335,0.3334134011308236,0.5863836376511631,-1,False,1,0.558,Shell profit rises as company resist oil slump
143,0.9031867193277527,0.03998611391095249,0.056827166761294665,0.9031867193277527,-1,False,1,0.474,FTSE ends higher; 3i Group leads after strong earnings
144,0.7347889790057839,0.24623133273999642,0.018979688254219643,0.7347889790057839,-1,True,-1,-0.414,"FTSE falls to 3-month low on Greek debt concerns, easyJet skids"
145,0.4995924695156263,0.33366196277381593,0.1667455677105577,0.4995924695156263,-1,True,-1,-0.353,Companies Severn Trent expects costs hit from inflation
146,0.0004525648902565165,0.002229566744151993,0.9973178683655916,0.9973178683655916,1,False,-1,-0.331,Glencore blames rivals for creating metals glut
147,0.33387514365341275,2.1353632412749346e-05,0.6661035027141744,0.6661035027141744,1,True,1,0.283,U.K. Shares Extend Rebound for Second Day as EasyJet Surges
148,0.25691714139314614,0.34408656567984586,0.398996292927008,0.398996292927008,1,False,0,0.012,PRESS: Pearson Set To Announce Sale Of Financial Times - Reuters
149,0.02901309066405787,0.9709650326566261,2.1876679315997082e-05,0.9709650326566261,0,False,1,0.814,Tesco shares jump 6% after Christmas sales beat expectations
150,0.5565510078032859,0.0002031483540433794,0.44324584384267074,0.5565510078032859,-1,False,0,0.177,"CompaniesNew Aggreko CEO to reshape business, strip costs"
151,0.2860516717222347,0.2887162593659874,0.42523206891177784,0.42523206891177784,1,False,-1,-0.446,Verizon and AT&T accused of hurting rivals
152,0.4997657769131879,0.49993331064549357,0.0003009124413184693,0.49993331064549357,0,False,-1,-0.298,Exclusive - Britain targets sale of half its RBS stake in two years: sources
153,0.9929512549266928,0.00048404725603381257,0.00656469781727326,0.9929512549266928,-1,False,0,0.048,U.S. Debt Lures Schroders as ECB Depresses Rates
154,0.16708042963790357,0.6668525533038209,0.16606701705827553,0.6668525533038209,0,False,1,0.31,"Saudi Aramco, Shell plan to break up Motiva, divide up assets"
155,0.0008584314115244199,0.33257872688976614,0.6665628416987094,0.6665628416987094,1,False,0,-0.078,InterContinental Hotels Denies Reports of Starwood Merger Talks
156,0.6666000942605443,0.0017487151283664274,0.3316511906110893,0.6666000942605443,-1,True,-1,-0.51,Standard Chartered faces fresh claims of Iran sanctions violations
157,0.003035186187490177,0.9969631165737639,1.6972387459188686e-06,0.9969631165737639,0,True,0,0.149,Shire in talks with Baxalta shareholders
158,0.0001445080430782949,0.0015565328291387817,0.9982989591277829,0.9982989591277829,1,False,0,0.056,"SSE to Shut Coal-Fired Plant Amid Shift to Gas, Renewable Energy"
159,0.3291351519471141,0.6625457567026589,0.008319091350226931,0.6625457567026589,0,False,-1,-0.272,Sharm el Sheikh: EasyJet axes all flights to Egypt's leading holiday resort
160,0.003238509385099763,0.9365289685160052,0.06023252209889509,0.9365289685160052,0,True,0,-0.116,"UPDATE 1-Norway's Statoil shakes up top management, replaces CFO"
161,0.25691714139314614,0.34408656567984586,0.398996292927008,0.398996292927008,1,True,1,0.42,Relief for Lewis as Tesco sees sales grow for first time in a year
162,0.17618799460822293,0.41110329151176367,0.41270871388001346,0.41270871388001346,1,True,1,0.299,Clydesdale and Yorkshire moves closer to independence
163,0.09088641868086568,0.009078952605280024,0.9000346287138542,0.9000346287138542,1,False,-1,-0.584,"European stocks hover near 3-week low, Dialog and BHP slump"
164,0.23153338234181567,0.43730044206750013,0.3311661755906842,0.43730044206750013,0,False,-1,-0.226,Dave Lewis admits long road ahead for Tesco recovery
165,0.25691714139314614,0.34408656567984586,0.398996292927008,0.398996292927008,1,True,1,0.453,Tesco leads FTSE higher on Clubcard bid reports
166,0.9908882137357286,0.002004544268164041,0.007107241996107498,0.9908882137357286,-1,False,1,0.209,Why I'd Buy ARM Holdings plc And BHP Billiton plc Today
167,0.25691714139314614,0.34408656567984586,0.398996292927008,0.398996292927008,1,False,-1,-0.594,Admiral Group posts decline in 2014 earnings
168,0.7502729639554013,0.00028335892106464886,0.24944367712353405,0.7502729639554013,-1,False,1,0.552,"Britain's FTSE bounces back, Mondi and Barratt lead"
169,0.48438130281452835,0.48080623943432826,0.0348124577511434,0.48438130281452835,-1,False,1,0.328,UPDATE 3-Barclays sells Italian branches to Mediobanca at a loss
170,0.2733140145801294,0.45396937612200966,0.27271660929786096,0.45396937612200966,0,True,0,-0.114,Morrisons finance chief to fill gap as CEO leaves early
171,0.0007537868024830676,0.6675116191141943,0.3317345940833227,0.6675116191141943,0,False,1,0.214,Sophos aims to raise $100m in London IPO
172,0.09982068476536457,0.7910222506394116,0.10915706459522373,0.7910222506394116,0,False,1,0.601,UK chip designer ARM hits a high after iPhone 6 boost
173,0.9566550624589572,0.03619066801419599,0.0071542695268468235,0.9566550624589572,-1,False,0,0.0,Wolseley share price: Group updates on quarterly performance
174,0.006927261088417851,0.002134848619476421,0.9909378902921058,0.9909378902921058,1,True,1,0.322,Rio Tinto announces long-delayed expansion of Mongolia mine
175,0.004243730713180997,0.666301901557752,0.32945436772906705,0.666301901557752,0,False,1,0.465,Shire rises as dry eye treatment sails through trial
176,0.1540263778240971,0.30690897118544347,0.5390646509904594,0.5390646509904594,1,False,-1,-0.221,Doubts grow over GlaxoSmithKline's $6 bln capital return plan
177,0.004243730713180997,0.666301901557752,0.32945436772906705,0.666301901557752,0,False,1,0.377,Aviva weighs cash handout after beating profit forecast
178,0.29953545997733355,0.10059720548480378,0.5998673345378627,0.5998673345378627,1,False,-1,-0.553,Shropshire and Mid Wales trains to be hit again in new strike by Arriva drivers
179,0.4988232495766318,0.49868774201435734,0.0024890084090108473,0.4988232495766318,-1,False,1,0.363,Greene King's third quarter sales boosted by festive season
180,0.6869399612599733,0.09383466522717884,0.21922537351284802,0.6869399612599733,-1,False,1,0.357,Big account wins keep ad group WPP at front of pack
181,0.5565510078032859,0.0002031483540433794,0.44324584384267074,0.5565510078032859,-1,False,0,0.162,Worldpay readies for Â£6bn London float
182,0.9231472858878456,0.003428338936652412,0.07342437517550196,0.9231472858878456,-1,False,0,0.116,"CEOs of BPM, UBI meet Italy econ minister as M&A talk heats up"
183,0.001042959453998106,0.018672121667617527,0.9802849188783844,0.9802849188783844,1,False,0,0.1,"Should You Buy Jumbo Yielders British American Tobacco plc, Centrica PLC & John Wood Group PLC?"
184,0.25691714139314614,0.34408656567984586,0.398996292927008,0.398996292927008,1,True,1,0.299,Dyson Wants to Create a Hair Dryer Revolution
185,0.005133695411842282,0.8289315276918721,0.1659347768962858,0.8289315276918721,0,False,1,0.37,Royal Dutch Shell to Buy BG Group for Nearly $70 Billion
186,9.955288476120149e-06,0.9999677619487318,2.2282762792078868e-05,0.9999677619487318,0,False,1,0.318,"EXCLUSIVE-BP, China's CNPC to unveil oil alliance - sources"
187,0.5996358217140819,0.19963509351728007,0.20072908476863804,0.5996358217140819,-1,False,1,0.62,CORRECTED-Shire to buy Dyax for about $5.9 bln
188,1.2407926884419881e-06,0.010064006258671208,0.9899347529486404,0.9899347529486404,1,False,-1,-0.667,BP set to cut hundreds of jobs at North Sea operations
189,0.9876949191658025,0.012250766157723435,5.431467647394367e-05,0.9876949191658025,-1,False,0,-0.149,BP's head of exploration Richard Herbert departs
190,0.006654655258523088,0.6654495879467457,0.32789575679473126,0.6654495879467457,0,False,-1,-0.739,"UPDATE 1-Nomura, RBS must pay $806 mln in mortgage bond case-US judge"
191,0.2986892856596481,0.39959019941378077,0.30172051492657126,0.39959019941378077,0,False,1,0.252,BRIEF-Legal & General's retirement business books 4 billion stg H1 sales
192,0.0006070359919602698,1.3667388086835075e-05,0.9993792966199528,0.9993792966199528,1,False,0,-0.052,CompaniesRoyal Mail swerves new pricing regulations
193,0.0002562081379159024,0.24877546036590187,0.7509683314961823,0.7509683314961823,1,False,0,0.075,JC Penney Cuts Pension Plan Obligation
194,0.29953545997733355,0.10059720548480378,0.5998673345378627,0.5998673345378627,1,False,-1,-0.275,Domino's Pizza worker sacked after crude slur aimed at customer on order screen
195,0.026754690722737014,0.9654405659542478,0.007804743323015332,0.9654405659542478,0,True,0,-0.119,"UPDATE 2-AB InBev launches SAB bid, to sell MillerCoors stake"
196,0.0002176178714163639,0.24995243288448366,0.7498299492441001,0.7498299492441001,1,True,1,0.362,Sales boost for new Morrisons chief David Potts as Tesco turnaround stalls
197,0.004898526169657843,0.000108399125818638,0.9949930747045235,0.9949930747045235,1,False,-1,-0.271,France raises concerns over proposed LSE-Deutsche Boerse deal
198,0.25691714139314614,0.34408656567984586,0.398996292927008,0.398996292927008,1,False,-1,-0.734,Genel Shares Plunge After Tony Hayward's Oil Explorer Cuts Crude Reserves at Core Field
199,0.9876949191658025,0.012250766157723435,5.431467647394367e-05,0.9876949191658025,-1,False,0,0.086,LSE-Deutsche Boerse merger would signal end to exchange mega-deals
200,0.7506717749364709,0.24923898564763197,8.923941589717566e-05,0.7506717749364709,-1,True,-1,-0.317,Sports Direct boss Mike Ashley summoned to Westminster for questioning over the treatment of workers
201,0.004711965708110305,0.01049391850657318,0.9847941157853166,0.9847941157853166,1,False,-1,-0.255,Diageo receives reports from United Spirits on financial irregularities involving ...
202,0.39864770346768513,0.20182163727812136,0.3995306592541935,0.3995306592541935,1,True,1,0.588,Industry NewsWood Group wins multi-million dollar contract with BP
203,0.1540263778240971,0.30690897118544347,0.5390646509904594,0.5390646509904594,1,False,0,0.164,"Centrica extends gas deals with Gazprom, Statoil"
204,0.0007537868024830676,0.6675116191141943,0.3317345940833227,0.6675116191141943,0,False,1,0.379,Legal & General arm buys 50 pct stake in MediaCityUK in Manchester
205,0.9807107180861828,0.016953226403732362,0.0023360555100849375,0.9807107180861828,-1,False,1,0.385,Sainsbury's pressed to raise bid for Home Retail Group
206,0.4961929378224903,0.0026406732597836447,0.501166388917726,0.501166388917726,1,False,-1,-0.548,"Buffett's Berkshire builds Deere stake, dumps Exxon"
207,0.597247630020722,0.3121688316900802,0.09058353828919787,0.597247630020722,-1,False,1,0.367,"Aldi and Lidl expansion plans speed ahead as Tesco, Sainsbury's, Morrisons ..."
208,0.00026239719389036404,0.49979910306047,0.49993849974563975,0.49993849974563975,1,False,-1,-0.605,Analysis - Copper market may get a 2003-style supply shock from Glencore closures
209,0.006654655258523088,0.6654495879467457,0.32789575679473126,0.6654495879467457,0,False,-1,-0.367,Tesco share price: Korean currency slide may hit Homeplus sale plans
210,0.4997657769131879,0.49993331064549357,0.0003009124413184693,0.49993331064549357,0,False,-1,-0.393,AstraZeneca cancer drug may not be so fast getting to market
211,0.14229350046480388,0.7149471468133629,0.14275935272183327,0.7149471468133629,0,False,-1,-0.498,Tullow Oil Suspends Dividend Amid Oil Price Fall
212,3.7336023995179144e-05,0.9952619844859117,0.004700679490093155,0.9952619844859117,0,False,-1,-0.637,UPDATE 3-Barclays sells Italian branches to Mediobanca at a loss
213,0.2575597865561005,0.013089408187398868,0.7293508052565005,0.7293508052565005,1,True,1,0.415,Diageo Shares Surge on Report of Possible Takeover by Lemann
214,0.9908882137357286,0.002004544268164041,0.007107241996107498,0.9908882137357286,-1,False,0,0.189,"Aviva, Friends Life top forecasts ahead of 5.6 billion pound merger"
215,0.49859622690591543,0.5008323508406762,0.0005714222534083775,0.5008323508406762,0,False,1,0.387,Friends Life lifts profits 38% and hikes divi ahead of proposed Aviva takeover
216,0.16708042963790357,0.6668525533038209,0.16606701705827553,0.6668525533038209,0,False,-1,-0.411,Centrica suffers protest from shareholders over pay
217,0.17618799460822293,0.41110329151176367,0.41270871388001346,0.41270871388001346,1,True,1,0.329,Google Fiber to buy Webpass for big city Internet service
218,0.25691714139314614,0.34408656567984586,0.398996292927008,0.398996292927008,1,False,0,0.181,Is It Worth Investing In Tesco PLC And Prudential plc Now?
219,0.876426798240451,0.1161733278964394,0.007399873863109655,0.876426798240451,-1,False,1,0.492,2 Turnaround Buys For 2016? BHP Billiton plc And Home Retail Group Plc
220,0.0016156554359745472,0.39781802242501174,0.6005663221390136,0.6005663221390136,1,False,0,0.0,Halfords appoints Jonny Mason as new CFO
221,0.2640571718413178,1.6439202312924477e-06,0.7359411842384509,0.7359411842384509,1,True,1,0.21,UPDATE 5-Buffett pays high price for Precision Castparts
222,0.3291351519471141,0.6625457567026589,0.008319091350226931,0.6625457567026589,0,False,-1,-0.698,Experian says receives class actions related to T-Mobile breach
223,0.25691714139314614,0.34408656567984586,0.398996292927008,0.398996292927008,1,True,1,0.601,Market Report: Aviva tops the market as traders approve of its choice of Friends
224,1.812854041878005e-05,0.998557905264766,0.0014239661948152755,0.998557905264766,0,False,1,0.596,IAG closes in on Aer Lingus with increased offer
225,0.2467227761793138,0.2540369382494272,0.49924028557125905,0.49924028557125905,1,True,1,0.295,GKN to buy Fokker Technologies for 706 mln euros
226,0.9738693991704362,0.004733814950483327,0.021396785879080314,0.9738693991704362,-1,False,1,0.275,UPDATE 1-Shire steps up drive to get Baxalta talking after $30 bln bid
227,0.0008711212647540094,0.0016293759180502066,0.9974995028171958,0.9974995028171958,1,True,1,0.43,Pearson in Talks to Sell Its Stake in the Economist Group
228,0.9999840096748678,4.931917493829434e-06,1.1058407638553051e-05,0.9999840096748678,-1,False,1,0.3,CompaniesTesco sheds Harris & Hoole coffee shops
229,0.6654041536269831,0.006795450425974394,0.32780039594704247,0.6654041536269831,-1,False,1,0.268,REFILE-BP agrees UK gas pipeline stake sale to infrastructur
230,0.33678719696490433,0.00014420946018357532,0.6630685935749121,0.6630685935749121,1,False,-1,-0.341,"BHP Billiton slashes dividend, posts $5.67 billion net loss"
231,0.25691714139314614,0.34408656567984586,0.398996292927008,0.398996292927008,1,False,0,0.044,"StanChart capital raising would be ""major surprise"" -investor Aberdeen"
232,0.008063075491359102,0.9875803946660501,0.004356529842590864,0.9875803946660501,0,False,-1,-0.579,Why I Would Put J Sainsbury plc In My Trolley Before Wm Morrison Supermarkets ...
233,0.22123622935421566,0.012448382114824727,0.7663153885309596,0.7663153885309596,1,True,1,0.534,Glaxo Sees Hope for Respiratory Drugs as Earnings Beat Estimates
234,0.001343631480847993,0.9975096486213726,0.0011467198977793526,0.9975096486213726,0,False,1,0.551,Peroni and Grolsch put up for sale as AB InBev plans acquisition of SABMiller
235,0.33381349212535877,0.334508627454724,0.33167788041991725,0.334508627454724,0,False,1,0.439,BRIEF-Aviva aims to increase dividend pay-out ratio to 50 pct in 2017
236,0.03578369515530167,0.00020174258360671437,0.9640145622610916,0.9640145622610916,1,True,1,0.482,Direct Line rings up higher profit
237,0.49818383784216125,0.0006329934010223519,0.5011831687568163,0.5011831687568163,1,False,0,0.183,Jim Armitage: Barclays boss Jes Staley steps up to the plate with post-Leave positivity
238,0.18501371044520787,0.032615432560667616,0.7823708569941245,0.7823708569941245,1,True,1,0.325,AstraZeneca sells rights to anaesthetics to South Africa's Aspen
239,0.006654655258523088,0.6654495879467457,0.32789575679473126,0.6654495879467457,0,False,1,0.211,GE to Sell Majority Stake in Bank BPH's Core Bank to Alior Bank
240,0.00010436400654524885,0.0015144659522871153,0.9983811700411676,0.9983811700411676,1,False,-1,-0.738,StanChart and RBS struggle in Bank of England stress tests
241,0.9997777969470082,0.00019881717208122894,2.338588091074703e-05,0.9997777969470082,-1,False,1,0.291,Antofagasta Sees Lower Cash Costs In 2015 - Quick Facts
242,0.8436907321520958,0.00022987964152558352,0.1560793882063786,0.8436907321520958,-1,False,0,0.0,NPS prospects dependent on drug approval
243,0.24857078713432526,0.25077492782684124,0.5006542850388335,0.5006542850388335,1,True,1,0.847,Priceline's stock jumps to new high for the year after Barclays upgrade
244,0.0002546233552775614,2.243585411610915e-06,0.999743133059311,0.999743133059311,1,True,1,0.389,Tesco leads leap in FTSE 100; Marks & Spencer drops
245,0.25691714139314614,0.34408656567984586,0.398996292927008,0.398996292927008,1,False,-1,-0.223,Tesco UK personnel director quits supermarket
246,0.49859622690591543,0.5008323508406762,0.0005714222534083775,0.5008323508406762,0,True,0,0.0,Royal Bank of Scotland fortunes ebbed and flowed under 3 chiefs
247,0.33678719696490433,0.00014420946018357532,0.6630685935749121,0.6630685935749121,1,False,-1,-0.368,Exxon Beaumont CDU overhaul to be slowed by accident: sources
248,0.4994054580522366,0.0009563701643049697,0.49963817178345843,0.49963817178345843,1,False,0,-0.113,TalkTalk hires BAE Systems to investigate cyber attack
249,0.0002562081379159024,0.24877546036590187,0.7509683314961823,0.7509683314961823,1,False,0,0.015,Valeant Said to Name New CEO With Pearson Still Hospitalized
250,0.0008711212647540094,0.0016293759180502066,0.9974995028171958,0.9974995028171958,1,True,1,0.282,ITV to pursue takeover of Canada's Entertainment One: Bloomberg
251,0.0009622774451796365,0.9988695649865876,0.0001681575682327795,0.9988695649865876,0,True,0,-0.014,Barclays appoints JPMorgan's Paul Compton as new COO
252,0.09088641868086568,0.009078952605280024,0.9000346287138542,0.9000346287138542,1,True,1,0.445,Rio Approves $5.3 Billion Oyu Tolgoi Copper Mine Expansion
253,0.3309409203087472,0.25383911643225077,0.4152199632590019,0.4152199632590019,1,False,-1,-0.382,Weir Group sees continued fall in orders from oil and gas business
254,0.011313078309508659,0.00013139340492396395,0.9885555282855674,0.9885555282855674,1,False,0,0.043,New BG Group CEO Helge Lund Starts Earlier Than Expected
255,0.011176883627950959,0.09240092301932731,0.8964221933527218,0.8964221933527218,1,False,0,-0.15,"BHP, Residents Brace as Cyclone Stan Nears Australian Coast"
256,0.3334302081017322,0.3320402552684787,0.3345295366297891,0.3345295366297891,1,True,1,0.284,Glaxo's ViiV Healthcare Signs China Manufacturing Deal With Desano
257,0.0008527751383054261,0.9944697960328622,0.004677428828832522,0.9944697960328622,0,False,-1,-0.475,"Barclays brands financier Amanda Staveley's $1bn claim as ""misconceived"""
258,0.014028198615793927,0.02094571552794093,0.9650260858562653,0.9650260858562653,1,True,1,0.209,"GlaxoSmithKline rebound gathering pace, says outgoing CEO"
259,0.5996358217140819,0.19963509351728007,0.20072908476863804,0.5996358217140819,-1,False,0,-0.079,AB InBev to sell more SAB assets as seeks EU deal approval
260,2.6376474901116922e-05,0.0007905804279441522,0.9991830430971548,0.9991830430971548,1,False,0,-0.18,UK government cuts stake in Lloyds to below 11 percent
261,0.2733140145801294,0.45396937612200966,0.27271660929786096,0.45396937612200966,0,True,0,-0.2,Morrisons store closures: 900 jobs to go as 11 branches are closed due to ...
262,0.25691714139314614,0.34408656567984586,0.398996292927008,0.398996292927008,1,False,0,0.042,BP chairman defends CEO Bob Dudley's pay increase
263,0.9908934320099267,0.0002456092198453981,0.008860958770227906,0.9908934320099267,-1,True,-1,-0.649,Profits Fall 25% At Standard Chartered PLC: Should You Buy Or Sell?
264,0.20326837696296635,0.005288381653744832,0.7914432413832889,0.7914432413832889,1,False,0,0.016,SAB's Chairman Digs In With Board Divided on InBev Offer
265,0.9682354643573765,0.0086119899816953,0.023152545660928156,0.9682354643573765,-1,True,-1,-0.675,Aviva Fined $27 Million by U.K. Regulator Over Fee Failings
266,0.33381349212535877,0.334508627454724,0.33167788041991725,0.334508627454724,0,False,1,0.385,"Whitbread Profit Up As Sales Continue To Rise, Looking For New CEO"
267,0.003586470134969391,0.49807659391222425,0.4983369359528065,0.4983369359528065,1,True,1,0.362,Persimmon shares nudge higher as housebuilder sees strong 2014
268,0.1615859764356,0.835164887879531,0.003249135684868963,0.835164887879531,0,True,0,0.146,UPDATE 1-BG Group's record output limits oil price fallout
269,0.0005737056967288614,0.0003284559881994945,0.9990978383150717,0.9990978383150717,1,True,1,0.336,Standard Life share price: Group gets approval to hike stake in India JV
270,0.0012553944215705612,0.33014569371010644,0.668598911868323,0.668598911868323,1,False,0,0.111,Tesco Mobile is offering you cash back in exchange for looking at ads
271,1.2049109174249633e-05,0.0006485542019320193,0.9993393966888938,0.9993393966888938,1,True,1,0.429,"Wolseley profit up 18%, warns on revenue growth"
272,0.00014789257074304175,0.016160631136297142,0.9836914762929599,0.9836914762929599,1,True,1,0.462,ITV share price: Group mulls takeover of Canada's Entertainment One
273,0.5565510078032859,0.0002031483540433794,0.44324584384267074,0.5565510078032859,-1,False,1,0.256,Blueprint Receives FDA Nod To Proceed With Clinical Trials For 2 Drug ...
274,0.6506172607455024,0.11287749531442473,0.23650524394007283,0.6506172607455024,-1,False,1,0.296,SABMiller buys Meantime to quench thirst for craft beer
275,0.49054773304335597,0.49030778464501856,0.019144482311625546,0.49054773304335597,-1,False,0,0.102,"Irish Said Chasing Standard Chartered, RBS as Brexit Vote Nears"
276,0.004021725219538143,0.010208942636992749,0.9857693321434691,0.9857693321434691,1,False,0,0.198,"After Barclays and Bank of America, Citigroup has blockchain in sight"
277,0.25691714139314614,0.34408656567984586,0.398996292927008,0.398996292927008,1,False,-1,-0.251,US says HSBC must do more to improve compliance
278,0.9430936455655782,0.000920975572321354,0.05598537886210055,0.9430936455655782,-1,False,0,0.119,Carnival Corporation and China Merchants Group Sign Memo of Understanding ...
279,0.0017006509575890924,0.9856290710385589,0.01267027800385206,0.9856290710385589,0,False,-1,-0.219,Staley to face challenges at Barclays
280,0.8949772197556056,0.07437761363025783,0.030645166614136583,0.8949772197556056,-1,False,1,0.422,GSK aims to file up to 20 new drugs for approval by 2020
281,0.09972150346437249,0.660083100051855,0.24019539648377244,0.660083100051855,0,False,-1,-0.794,British American Tobacco accused of bribing senior politicians to sabotage ...
282,0.029311113819111004,0.5769858980319751,0.39370298814891386,0.5769858980319751,0,True,0,-0.17,BT finance director Tony Chanmugam to step down
283,0.003586470134969391,0.49807659391222425,0.4983369359528065,0.4983369359528065,1,False,0,0.192,AstraZeneca to cut costs but stays silent on M&A talk
284,0.00810951129827361,0.32707247617282525,0.6648180125289012,0.6648180125289012,1,False,0,0.031,"Buffett's Berkshire builds Deere stake, dumps Exxon"
285,0.25691714139314614,0.34408656567984586,0.398996292927008,0.398996292927008,1,False,0,-0.2,Barclays Not Convinced by Gains in South African Stocks: Chart
286,0.49859622690591543,0.5008323508406762,0.0005714222534083775,0.5008323508406762,0,False,-1,-0.468,5 Years After BP Spill: What's Changed in Offshore Drilling
287,0.25691714139314614,0.34408656567984586,0.398996292927008,0.398996292927008,1,True,1,0.372,AstraZeneca Explores Potential Deal With Acerta for Cancer Drug
288,0.00039231777753597597,0.33548941039908364,0.6641182718233802,0.6641182718233802,1,True,1,0.3,Tesco sells half of stake in ecommerce site Lazada to Alibaba for Â£90m
289,0.23153338234181567,0.43730044206750013,0.3311661755906842,0.43730044206750013,0,False,-1,-0.263,"UK sells more of Lloyds bank stake, 12.5 billion pounds raised so far"
290,0.019044679055680143,0.01602148944994188,0.9649338314943781,0.9649338314943781,1,False,-1,-0.514,Hargreaves Lansdown share price falls as costs mount - although pensions ...
291,0.00013595293126186518,0.49952561759982894,0.5003384294689093,0.5003384294689093,1,True,1,0.216,Meggitt agrees to buy US aerospace component firm for $340 million
292,0.3309409203087472,0.25383911643225077,0.4152199632590019,0.4152199632590019,1,True,1,0.333,TRLPC - CRH backs Lafarge Holcim asset buy with 6.5 bln euro bridge loan
293,0.00020262681247778884,0.6506626068671475,0.3491347663203746,0.6506626068671475,0,False,1,0.275,Bloomberg buys Barclays' benchmarking business
294,0.006654655258523088,0.6654495879467457,0.32789575679473126,0.6654495879467457,0,False,-1,-0.232,"Barclays, Deutsche Bank Fight to Lift Profit Just Got Harder"
295,0.25691714139314614,0.34408656567984586,0.398996292927008,0.398996292927008,1,False,-1,-0.358,Royal Bank of Scotland chair hints Brexit turmoil will delay government sale
296,0.33678719696490433,0.00014420946018357532,0.6630685935749121,0.6630685935749121,1,False,-1,-0.259,"Sainsbury's, Asda, Tesco and Morrisons will all cut petrol prices as oil falls ..."
297,4.929347930624865e-06,0.007552872901417468,0.992442197750652,0.992442197750652,1,True,1,0.391,UPDATE 1-Berkshire applies to boost Wells Fargo stake above 10 pct
298,0.3834354655985719,0.6116362992438036,0.004928235157624409,0.6116362992438036,0,False,1,0.274,Shire Sees Baxalta Deal Closing as Expected After New Rules
299,0.9968562311239774,1.4340376819397893e-05,0.003129428499203387,0.9968562311239774,-1,False,1,0.572,AstraZeneca heart drug boosted by major clinical trial success
300,0.9999756137809918,2.433007480921385e-05,5.614419911414532e-08,0.9999756137809918,-1,False,0,-0.198,Shire share price under pressure after $32bn Baxalta deal
301,0.0007236842876169082,0.9982997356697707,0.0009765800426124798,0.9982997356697707,0,False,1,0.502,UK WINNERS & LOSERS: Aviva And Friends Life Lead FTSE 100 Gainers
302,0.0009961716046034928,0.009104244367593765,0.9898995840278026,0.9898995840278026,1,True,1,0.792,CompaniesGlencore's annual results beat forecasts
303,0.9973972545672569,0.000734455003783623,0.001868290428959415,0.9973972545672569,-1,False,1,0.667,Warren Buffett's Berkshire Hathaway quarterly profit jumps almost one third
304,0.25691714139314614,0.34408656567984586,0.398996292927008,0.398996292927008,1,False,-1,-0.456,Pfizer to cut 120 jobs with closure of Cambridge R&D centre
305,1.2049109174249633e-05,0.0006485542019320193,0.9993393966888938,0.9993393966888938,1,True,1,0.536,Sainsbury's says to outperform rivals in tough market
306,0.3309409203087472,0.25383911643225077,0.4152199632590019,0.4152199632590019,1,False,-1,-0.337,Centrica share price: British Gas under fire despite 5% price cut
307,1.2415930242940636e-06,0.02470025933393662,0.9752984990730391,0.9752984990730391,1,False,-1,-0.216,RBI surprises Street; Sensex pares gains after hitting mount 30k
308,0.14229350046480388,0.7149471468133629,0.14275935272183327,0.7149471468133629,0,False,-1,-0.657,"London open: Taylor Wimpey and Ashtead drive markets higher, Barclays falls"
309,0.006397019266556959,1.6477358651131943e-07,0.9936028159598566,0.9936028159598566,1,False,-1,-0.495,easyJet leads Britain's FTSE lower as global bond rout resumes
310,0.49433343614204733,0.003682414645812707,0.5019841492121401,0.5019841492121401,1,False,0,-0.045,AB InBev to Sell SABMiller Stake in China's Snow Beer
311,0.25691714139314614,0.34408656567984586,0.398996292927008,0.398996292927008,1,True,1,0.358,Merkel's Government Said to Support Deutsche Boerse-LSE Merger
312,0.25691714139314614,0.34408656567984586,0.398996292927008,0.398996292927008,1,True,1,0.354,Tesco share price closes higher as two more directors leave grocer
313,0.0009946458630105991,0.0009036307341051964,0.9981017234028842,0.9981017234028842,1,False,0,-0.038,Tesco sells half of stake in ecommerce site Lazada to Alibaba for Â£90m
314,0.49539726141313084,0.49912552891805195,0.005477209668817212,0.49912552891805195,0,False,-1,-0.229,UPDATE 5-Barclays Chairman McFarlane axes CEO to speed up strategic change
315,0.004976377500122654,0.28502152021780425,0.710002102282073,0.710002102282073,1,False,0,0.057,"Berkshire Bought Apple Stake at $99.49 a Share, Filing Shows"
316,0.2733140145801294,0.45396937612200966,0.27271660929786096,0.45396937612200966,0,True,0,0.0,Sainsbury CFO Rogers to Replace Home Retail CEO Walden
317,0.25691714139314614,0.34408656567984586,0.398996292927008,0.398996292927008,1,False,-1,-0.266,UPDATE 1-Lloyds to cut 945 jobs as part of 3-year restructuring plan
318,0.25691714139314614,0.34408656567984586,0.398996292927008,0.398996292927008,1,True,1,0.541,Copper Prices up on Glencore Cuts to Zinc Supply
319,0.3291351519471141,0.6625457567026589,0.008319091350226931,0.6625457567026589,0,True,0,0.109,WPP's Sir Martin Sorrell is highest-paid FTSE 100 chief executive
320,0.026754690722737014,0.9654405659542478,0.007804743323015332,0.9654405659542478,0,False,-1,-0.775,Meggitt plc Crashes 20% On Profit Warning: Is It Now A Buy?
321,0.3306307200928619,0.00016163434834222805,0.6692076455587959,0.6692076455587959,1,False,-1,-0.596,UK government cuts stake in Lloyds to below 11 pct
322,0.003586470134969391,0.49807659391222425,0.4983369359528065,0.4983369359528065,1,True,1,0.329,Passengers rise at EasyJet and Aer Lingus
323,0.9908934320099267,0.0002456092198453981,0.008860958770227906,0.9908934320099267,-1,True,-1,-0.6,"Sharm el-Sheikh travel disruption: British Airways, EasyJet, Thomson and ..."
324,0.23153338234181567,0.43730044206750013,0.3311661755906842,0.43730044206750013,0,False,1,0.412,"US STOCKS-Wall St rises on Berkshire deal, China stimulus hopes"
325,0.006654655258523088,0.6654495879467457,0.32789575679473126,0.6654495879467457,0,False,1,0.95,Prudential Financial quarterly profit rises 64 pct
326,0.14229350046480388,0.7149471468133629,0.14275935272183327,0.7149471468133629,0,False,-1,-0.388,US Seeks Huawei Records on Dealings With Sanctioned Nations
327,0.0032227855123948515,8.275200145726307e-07,0.9967763869675905,0.9967763869675905,1,False,0,-0.172,Centrica urges policy overhaul as it warns of 'looming gap' in UK energy supplies
328,0.0006618902945441271,0.0020312664606370275,0.9973068432448189,0.9973068432448189,1,False,-1,-0.284,UPDATE 1-AstraZeneca potassium drug delayed by manufacturing snag
329,0.2504400193360832,0.015946703809239272,0.7336132768546775,0.7336132768546775,1,True,1,0.349,Activist Fund TCI Backs German Takeover of London Stock Exchange
330,0.6981902409853417,0.02753256155096409,0.2742771974636942,0.6981902409853417,-1,True,-1,-0.402,"Oil majors like Royal Dutch Shell, Chevron, BP fail to find reserves to counter ..."
331,0.03533838165015203,0.1599697158895392,0.8046919024603089,0.8046919024603089,1,False,-1,-0.539,Four ex-Barclays bankers sentenced for roles in Libor rate-rigging scandal
332,0.5565510078032859,0.0002031483540433794,0.44324584384267074,0.5565510078032859,-1,False,0,0.193,AB InBev to sell more SAB assets as seeks EU deal approval
333,0.00031485790493012664,0.8134861336258712,0.1861990084691988,0.8134861336258712,0,False,1,0.225,Berkshire applies to boost Wells Fargo stake above 10 percent
334,0.3248607957180893,0.6677644593474789,0.007374744934431793,0.6677644593474789,0,False,-1,-0.347,Tesco leads leap in FTSE 100; Marks & Spencer drops
335,0.00016752007915085796,0.5019635988802276,0.4978688810406217,0.5019635988802276,0,False,1,0.413,Balfour Beatty plc Set To Reinstate Dividend (And Rival National Grid plc And Centrica PLC Once More?)
336,0.0014089252639437515,0.49511312828850446,0.5034779464475518,0.5034779464475518,1,False,0,0.148,"UPDATE: CIB, Legal & General Sell Egyptian Life Joint Venture To AXA"
337,0.5565510078032859,0.0002031483540433794,0.44324584384267074,0.5565510078032859,-1,False,0,0.069,BG Group appoints new CEO one month early
338,0.008060581734670292,0.035085934849017945,0.9568534834163118,0.9568534834163118,1,True,1,0.305,"FDA panel backs Glaxo asthma drug for adults, not adolescents"
339,0.9937235349089664,0.0007050942255414098,0.005571370865492151,0.9937235349089664,-1,False,0,0.0,Barclays set to name former JPMorgan banker Staley as new CEO
340,0.2898438244868179,0.013592176279305005,0.696563999233877,0.696563999233877,1,False,-1,-0.786,Kingfisher share price slides on cost to implement new strategy
341,0.25691714139314614,0.34408656567984586,0.398996292927008,0.398996292927008,1,True,1,0.494,"CompaniesTravis Perkins lifts dividend, earnings rise 15%"
342,0.9566550624589572,0.03619066801419599,0.0071542695268468235,0.9566550624589572,-1,True,-1,-0.461,Standard Chartered Shifts Emerging-Markets Strategy After Losses
